<svg xmlns="http://www.w3.org/2000/svg" width="158.64" height="36.017" viewBox="0 0 158.64 36.017">
  <path id="arow" d="M140.961.3A1.125,1.125,0,0,1,142.4.225l.15.136,15.792,16.9a1.125,1.125,0,0,1,.13,1.356l-.131.172L142.549,35.657a1.124,1.124,0,0,1-1.773-1.368l.124-.161,14.067-15.005H1.1S0,18.983,0,18.008s1.1-1.122,1.1-1.122H154.93l-14.032-15a1.125,1.125,0,0,1-.073-1.438Z" fill="#fff"/>
</svg>
